Introduction to recipes
…
Now that the statistics have been estimated, the preprocessing can be
applied to the training and test set:

train_data <- bake(trained_rec, new_data = credit_train)
test_data  <- bake(trained_rec, new_data = credit_test)

bake returns a tibble that, by default, includes all of
the variables:

class(test_data)
#> [1] "tbl_df"     "tbl"        "data.frame"
test_data
#> # A tibble: 1,114 × 23
#>    Seniority   Time    Age Expenses  Income Assets   Debt  Amount    Price
#>        <dbl>  <dbl>  <dbl>    <dbl>   <dbl>  <dbl>  <dbl>   <dbl>    <dbl>
#>  1     1.09   0.924  1.88    -0.385 -0.131  -0.488 -0.295 -0.0817  0.297  
#>  2    -0.977  0.924 -0.459    1.77  -0.437   0.845 -0.295  0.333   0.760  
#>  3    -0.977  0.103  0.349    1.77  -0.783  -0.488 -0.295  0.333   0.00254
#>  4    -0.247  0.103 -0.280    0.231 -0.207  -0.133 -0.295  0.229   0.171  
#>  5    -0.125 -0.718 -0.729    0.231 -0.258  -0.222 -0.295 -0.807  -0.854  
#>  6    -0.855  0.924 -0.549   -1.05  -0.0539 -0.488 -0.295  0.436  -0.331  
#>  7     2.31   0.924  0.349    0.949 -0.0155 -0.488 -0.295 -0.185   0.0475 
#>  8     0.848 -0.718  0.529    1.00   1.40   -0.133 -0.295  1.58    1.69   
#>  9    -0.977 -0.718 -1.27    -0.538 -0.246  -0.266 -0.295 -1.32   -1.65   
#> 10    -0.855  0.514 -0.100    0.744 -0.540  -0.488 -0.295 -0.185  -0.800  
#> # … with 1,104 more rows, and 14 more variables: Status <fct>, Home_X1 <dbl>,
#> #   Home_X2 <dbl>, Home_X3 <dbl>, Home_X4 <dbl>, Home_X5 <dbl>,
#> #   Marital_X1 <dbl>, Marital_X2 <dbl>, Marital_X3 <dbl>, Marital_X4 <dbl>,
#> #   Records_X1 <dbl>, Job_X1 <dbl>, Job_X2 <dbl>, Job_X3 <dbl>
…
