natserv introduction
…
When state equals “Finished”, you can read the data into R, e.g, with jsonlite:

res$data$url
#> [1] "https://explorer-downloads.natureserve.org/shortTerm/explorer/taxaSearchExports/2020-05-15/7a107bea-b98d-4b5a-87b3-456ea2194f07.json"
tibble::as_tibble(jsonlite::fromJSON(res$data$url))
#> # A tibble: 126 x 14
#>    elementGlobalId uniqueId nsxUrl elcode scientificName formattedScient… primaryCommonNa… primaryCommonNa… roundedGRank
#>              <int> <chr>    <chr>  <chr>  <chr>          <chr>            <chr>            <chr>            <chr>
#>  1          100637 ELEMENT… /Taxo… ABPBJ… Copsychus sau… <i>Copsychus sa… Oriental Magpie… EN               G5
#>  2          102323 ELEMENT… /Taxo… ABPBJ… Turdus grayi   <i>Turdus grayi… Clay-colored Th… EN               G5
#>  3          102179 ELEMENT… /Taxo… ABPBJ… Turdus migrat… <i>Turdus migra… American Robin   EN               G5
#>  4          105536 ELEMENT… /Taxo… ABPBJ… Turdus migrat… <i>Turdus migra… Western America… EN               TU
#>  5          105850 ELEMENT… /Taxo… ABPBJ… Turdus rufopa… <i>Turdus rufop… Rufous-backed R… EN               G5
#>  6          100589 ELEMENT… /Taxo… AFC4B… Peristedion g… <i>Peristedion … Slender Searobin EN               GNR
#>  7          105826 ELEMENT… /Taxo… AFC4B… Prionotus ala… <i>Prionotus al… Spiny Searobin   EN               GNR
#>  8          101394 ELEMENT… /Taxo… AFC4B… Prionotus car… <i>Prionotus ca… Northern Searob… EN               G5
#>  9          100276 ELEMENT… /Taxo… AFC4B… Prionotus evo… <i>Prionotus ev… Striped Searobin EN               G5
#> 10          103595 ELEMENT… /Taxo… AFC4B… Prionotus lon… <i>Prionotus lo… Bigeye Searobin  EN               G5
#> # … with 116 more rows, and 29 more variables: nations <list>, lastModified <chr>, speciesGlobal$usesaCode <chr>,
#> #   $cosewicCode <chr>, $saraCode <chr>, $synonyms <list>, $otherCommonNames <list>, $kingdom <chr>, $phylum <chr>,
#> #   $taxclass <chr>, $taxorder <chr>, $family <chr>, $genus <chr>, $taxonomicComments <chr>, $informalTaxonomy <chr>,
#> #   $infraspecies <lgl>, $completeDistribution <lgl>, gRank <chr>, ecosystemGlobal$translatedScientificName <chr>,
#> #   $taxclassCode <chr>, $taxsubclassCode <chr>, $formationCode <chr>, $divisionCode <chr>, $macrogroupKey <chr>,
#> #   $taxgroupKey <chr>, $allianceKey <chr>, $ecosystemType <chr>, $classificationCode <chr>, $parentName <chr>
